(kicad_sch
	(version 20231120)
	(generator "eeschema")
	(generator_version "8.0")
	(uuid "e3e5797e-752b-4633-8c10-5bf78b070097")
	(paper "A4")
	(lib_symbols
		(symbol "Connector:DE9_Receptacle"
			(pin_names
				(offset 1.016) hide)
			(exclude_from_sim no)
			(in_bom yes)
			(on_board yes)
			(property "Reference" "J"
				(at 0 13.97 0)
				(effects
					(font
						(size 1.27 1.27)
					)
				)
			)
			(property "Value" "DE9_Receptacle"
				(at 0 -14.605 0)
				(effects
					(font
						(size 1.27 1.27)
					)
				)
			)
			(property "Footprint" ""
				(at 0 0 0)
				(effects
					(font
						(size 1.27 1.27)
					)
					(hide yes)
				)
			)
			(property "Datasheet" " ~"
				(at 0 0 0)
				(effects
					(font
						(size 1.27 1.27)
					)
					(hide yes)
				)
			)
			(property "Description" "9-pin female receptacle socket D-SUB connector"
				(at 0 0 0)
				(effects
					(font
						(size 1.27 1.27)
					)
					(hide yes)
				)
			)
			(property "ki_keywords" "connector receptacle female D-SUB DB9"
				(at 0 0 0)
				(effects
					(font
						(size 1.27 1.27)
					)
					(hide yes)
				)
			)
			(property "ki_fp_filters" "DSUB*Female*"
				(at 0 0 0)
				(effects
					(font
						(size 1.27 1.27)
					)
					(hide yes)
				)
			)
			(symbol "DE9_Receptacle_0_1"
				(circle
					(center -1.778 -10.16)
					(radius 0.762)
					(stroke
						(width 0)
						(type default)
					)
					(fill
						(type none)
					)
				)
				(circle
					(center -1.778 -5.08)
					(radius 0.762)
					(stroke
						(width 0)
						(type default)
					)
					(fill
						(type none)
					)
				)
				(circle
					(center -1.778 0)
					(radius 0.762)
					(stroke
						(width 0)
						(type default)
					)
					(fill
						(type none)
					)
				)
				(circle
					(center -1.778 5.08)
					(radius 0.762)
					(stroke
						(width 0)
						(type default)
					)
					(fill
						(type none)
					)
				)
				(circle
					(center -1.778 10.16)
					(radius 0.762)
					(stroke
						(width 0)
						(type default)
					)
					(fill
						(type none)
					)
				)
				(polyline
					(pts
						(xy -3.81 -10.16) (xy -2.54 -10.16)
					)
					(stroke
						(width 0)
						(type default)
					)
					(fill
						(type none)
					)
				)
				(polyline
					(pts
						(xy -3.81 -7.62) (xy 0.508 -7.62)
					)
					(stroke
						(width 0)
						(type default)
					)
					(fill
						(type none)
					)
				)
				(polyline
					(pts
						(xy -3.81 -5.08) (xy -2.54 -5.08)
					)
					(stroke
						(width 0)
						(type default)
					)
					(fill
						(type none)
					)
				)
				(polyline
					(pts
						(xy -3.81 -2.54) (xy 0.508 -2.54)
					)
					(stroke
						(width 0)
						(type default)
					)
					(fill
						(type none)
					)
				)
				(polyline
					(pts
						(xy -3.81 0) (xy -2.54 0)
					)
					(stroke
						(width 0)
						(type default)
					)
					(fill
						(type none)
					)
				)
				(polyline
					(pts
						(xy -3.81 2.54) (xy 0.508 2.54)
					)
					(stroke
						(width 0)
						(type default)
					)
					(fill
						(type none)
					)
				)
				(polyline
					(pts
						(xy -3.81 5.08) (xy -2.54 5.08)
					)
					(stroke
						(width 0)
						(type default)
					)
					(fill
						(type none)
					)
				)
				(polyline
					(pts
						(xy -3.81 7.62) (xy 0.508 7.62)
					)
					(stroke
						(width 0)
						(type default)
					)
					(fill
						(type none)
					)
				)
				(polyline
					(pts
						(xy -3.81 10.16) (xy -2.54 10.16)
					)
					(stroke
						(width 0)
						(type default)
					)
					(fill
						(type none)
					)
				)
				(polyline
					(pts
						(xy -3.81 13.335) (xy -3.81 -13.335) (xy 3.81 -9.525) (xy 3.81 9.525) (xy -3.81 13.335)
					)
					(stroke
						(width 0.254)
						(type default)
					)
					(fill
						(type background)
					)
				)
				(circle
					(center 1.27 -7.62)
					(radius 0.762)
					(stroke
						(width 0)
						(type default)
					)
					(fill
						(type none)
					)
				)
				(circle
					(center 1.27 -2.54)
					(radius 0.762)
					(stroke
						(width 0)
						(type default)
					)
					(fill
						(type none)
					)
				)
				(circle
					(center 1.27 2.54)
					(radius 0.762)
					(stroke
						(width 0)
						(type default)
					)
					(fill
						(type none)
					)
				)
				(circle
					(center 1.27 7.62)
					(radius 0.762)
					(stroke
						(width 0)
						(type default)
					)
					(fill
						(type none)
					)
				)
			)
			(symbol "DE9_Receptacle_1_1"
				(pin passive line
					(at -7.62 10.16 0)
					(length 3.81)
					(name "1"
						(effects
							(font
								(size 1.27 1.27)
							)
						)
					)
					(number "1"
						(effects
							(font
								(size 1.27 1.27)
							)
						)
					)
				)
				(pin passive line
					(at -7.62 5.08 0)
					(length 3.81)
					(name "2"
						(effects
							(font
								(size 1.27 1.27)
							)
						)
					)
					(number "2"
						(effects
							(font
								(size 1.27 1.27)
							)
						)
					)
				)
				(pin passive line
					(at -7.62 0 0)
					(length 3.81)
					(name "3"
						(effects
							(font
								(size 1.27 1.27)
							)
						)
					)
					(number "3"
						(effects
							(font
								(size 1.27 1.27)
							)
						)
					)
				)
				(pin passive line
					(at -7.62 -5.08 0)
					(length 3.81)
					(name "4"
						(effects
							(font
								(size 1.27 1.27)
							)
						)
					)
					(number "4"
						(effects
							(font
								(size 1.27 1.27)
							)
						)
					)
				)
				(pin passive line
					(at -7.62 -10.16 0)
					(length 3.81)
					(name "5"
						(effects
							(font
								(size 1.27 1.27)
							)
						)
					)
					(number "5"
						(effects
							(font
								(size 1.27 1.27)
							)
						)
					)
				)
				(pin passive line
					(at -7.62 7.62 0)
					(length 3.81)
					(name "6"
						(effects
							(font
								(size 1.27 1.27)
							)
						)
					)
					(number "6"
						(effects
							(font
								(size 1.27 1.27)
							)
						)
					)
				)
				(pin passive line
					(at -7.62 2.54 0)
					(length 3.81)
					(name "7"
						(effects
							(font
								(size 1.27 1.27)
							)
						)
					)
					(number "7"
						(effects
							(font
								(size 1.27 1.27)
							)
						)
					)
				)
				(pin passive line
					(at -7.62 -2.54 0)
					(length 3.81)
					(name "8"
						(effects
							(font
								(size 1.27 1.27)
							)
						)
					)
					(number "8"
						(effects
							(font
								(size 1.27 1.27)
							)
						)
					)
				)
				(pin passive line
					(at -7.62 -7.62 0)
					(length 3.81)
					(name "9"
						(effects
							(font
								(size 1.27 1.27)
							)
						)
					)
					(number "9"
						(effects
							(font
								(size 1.27 1.27)
							)
						)
					)
				)
			)
		)
	)
	(wire
		(pts
			(xy 134.62 93.98) (xy 144.78 93.98)
		)
		(stroke
			(width 0)
			(type default)
		)
		(uuid "0476fa4e-5d3e-4f51-a82d-150f53875d80")
	)
	(wire
		(pts
			(xy 165.1 111.76) (xy 170.18 111.76)
		)
		(stroke
			(width 0)
			(type default)
		)
		(uuid "06b45ee3-317f-4240-8352-dfa0a7d89527")
	)
	(wire
		(pts
			(xy 149.86 104.14) (xy 149.86 96.52)
		)
		(stroke
			(width 0)
			(type default)
		)
		(uuid "08577678-1d7d-4828-97fb-71137acbea5a")
	)
	(wire
		(pts
			(xy 139.7 119.38) (xy 165.1 119.38)
		)
		(stroke
			(width 0)
			(type default)
		)
		(uuid "0b34618a-1491-4a34-996e-78a40d197cd6")
	)
	(wire
		(pts
			(xy 139.7 91.44) (xy 139.7 119.38)
		)
		(stroke
			(width 0)
			(type default)
		)
		(uuid "1bf40525-a0ac-4e9f-94b5-88a85d8a6ecf")
	)
	(wire
		(pts
			(xy 134.62 104.14) (xy 149.86 104.14)
		)
		(stroke
			(width 0)
			(type default)
		)
		(uuid "27716508-fb71-4fc6-b29d-dc7b0e0ae9c7")
	)
	(wire
		(pts
			(xy 165.1 119.38) (xy 165.1 111.76)
		)
		(stroke
			(width 0)
			(type default)
		)
		(uuid "29689335-9257-4cc4-b98c-eab3219d8c37")
	)
	(wire
		(pts
			(xy 142.24 116.84) (xy 162.56 116.84)
		)
		(stroke
			(width 0)
			(type default)
		)
		(uuid "2b57d87a-422c-42a8-9b95-c620cbf4bb3d")
	)
	(wire
		(pts
			(xy 134.62 96.52) (xy 142.24 96.52)
		)
		(stroke
			(width 0)
			(type default)
		)
		(uuid "2dae4643-8bfe-45d5-8fa9-7abd433a7e99")
	)
	(wire
		(pts
			(xy 154.94 96.52) (xy 154.94 99.06)
		)
		(stroke
			(width 0)
			(type default)
		)
		(uuid "3b48a103-874c-4fa9-90c4-519082137d10")
	)
	(wire
		(pts
			(xy 160.02 91.44) (xy 170.18 91.44)
		)
		(stroke
			(width 0)
			(type default)
		)
		(uuid "3f47fa4d-3100-4602-8504-c0bd273b4cd4")
	)
	(wire
		(pts
			(xy 149.86 109.22) (xy 170.18 109.22)
		)
		(stroke
			(width 0)
			(type default)
		)
		(uuid "3f8e8a48-af15-455b-9ffd-2ebf7297b78d")
	)
	(wire
		(pts
			(xy 160.02 111.76) (xy 160.02 91.44)
		)
		(stroke
			(width 0)
			(type default)
		)
		(uuid "47f479cc-e85d-4a5c-b2f4-3d7d903ee26b")
	)
	(wire
		(pts
			(xy 147.32 109.22) (xy 147.32 93.98)
		)
		(stroke
			(width 0)
			(type default)
		)
		(uuid "5b6f6d75-b0b5-4c04-a41f-f3fef3da52d7")
	)
	(wire
		(pts
			(xy 144.78 114.3) (xy 149.86 114.3)
		)
		(stroke
			(width 0)
			(type default)
		)
		(uuid "6647c7e2-8c22-4793-9967-fbf9c9e3855d")
	)
	(wire
		(pts
			(xy 157.48 96.52) (xy 170.18 96.52)
		)
		(stroke
			(width 0)
			(type default)
		)
		(uuid "6b03e749-1708-4c78-9ae6-834791ad3187")
	)
	(wire
		(pts
			(xy 134.62 109.22) (xy 147.32 109.22)
		)
		(stroke
			(width 0)
			(type default)
		)
		(uuid "7a59404c-b482-403c-9bec-8830549c2ca6")
	)
	(wire
		(pts
			(xy 134.62 106.68) (xy 157.48 106.68)
		)
		(stroke
			(width 0)
			(type default)
		)
		(uuid "7c52ef4d-c942-4309-bd2f-0421f9e4e741")
	)
	(wire
		(pts
			(xy 152.4 104.14) (xy 170.18 104.14)
		)
		(stroke
			(width 0)
			(type default)
		)
		(uuid "87f67a55-e66a-454e-bd71-55a59f7a067c")
	)
	(wire
		(pts
			(xy 149.86 96.52) (xy 154.94 96.52)
		)
		(stroke
			(width 0)
			(type default)
		)
		(uuid "8f5b69b0-5f39-4ff7-8d79-a2ca0c4a1d2b")
	)
	(wire
		(pts
			(xy 154.94 99.06) (xy 170.18 99.06)
		)
		(stroke
			(width 0)
			(type default)
		)
		(uuid "8fddb11c-7dfd-4627-8191-7d215a0b4177")
	)
	(wire
		(pts
			(xy 149.86 114.3) (xy 149.86 109.22)
		)
		(stroke
			(width 0)
			(type default)
		)
		(uuid "94c73110-9599-4465-a558-ae947d41aa38")
	)
	(wire
		(pts
			(xy 134.62 111.76) (xy 160.02 111.76)
		)
		(stroke
			(width 0)
			(type default)
		)
		(uuid "9d37d5f5-11ed-4145-81f4-cbf79ee76eb4")
	)
	(wire
		(pts
			(xy 134.62 99.06) (xy 152.4 99.06)
		)
		(stroke
			(width 0)
			(type default)
		)
		(uuid "ad553558-94cf-4755-ade3-a157f276f26a")
	)
	(wire
		(pts
			(xy 162.56 106.68) (xy 170.18 106.68)
		)
		(stroke
			(width 0)
			(type default)
		)
		(uuid "c2112de0-8b23-4d5d-913a-97c36aaae7d7")
	)
	(wire
		(pts
			(xy 162.56 116.84) (xy 162.56 106.68)
		)
		(stroke
			(width 0)
			(type default)
		)
		(uuid "c2af8a55-a1a8-422a-908a-4e2983e3ed5a")
	)
	(wire
		(pts
			(xy 152.4 99.06) (xy 152.4 104.14)
		)
		(stroke
			(width 0)
			(type default)
		)
		(uuid "c9dfd3a1-4cc3-4550-9dbb-66af24b8b499")
	)
	(wire
		(pts
			(xy 134.62 101.6) (xy 170.18 101.6)
		)
		(stroke
			(width 0)
			(type default)
		)
		(uuid "d11553e9-73a1-45b5-8aa4-53c8cafa0e28")
	)
	(wire
		(pts
			(xy 147.32 93.98) (xy 170.18 93.98)
		)
		(stroke
			(width 0)
			(type default)
		)
		(uuid "d611b0ea-843b-40de-b8e1-f63cd28f2d43")
	)
	(wire
		(pts
			(xy 134.62 91.44) (xy 139.7 91.44)
		)
		(stroke
			(width 0)
			(type default)
		)
		(uuid "e88dccf7-9d92-400f-9acf-5af625c13b1f")
	)
	(wire
		(pts
			(xy 144.78 93.98) (xy 144.78 114.3)
		)
		(stroke
			(width 0)
			(type default)
		)
		(uuid "ecad9763-ba8a-4437-8e15-005b90d59d13")
	)
	(wire
		(pts
			(xy 157.48 106.68) (xy 157.48 96.52)
		)
		(stroke
			(width 0)
			(type default)
		)
		(uuid "f0d024b5-42e9-4801-b442-85b915e10af3")
	)
	(wire
		(pts
			(xy 142.24 96.52) (xy 142.24 116.84)
		)
		(stroke
			(width 0)
			(type default)
		)
		(uuid "fbeec27e-0a53-4e1a-a070-aeeffd56cfd3")
	)
	(symbol
		(lib_id "Connector:DE9_Receptacle")
		(at 177.8 101.6 0)
		(unit 1)
		(exclude_from_sim no)
		(in_bom yes)
		(on_board yes)
		(dnp no)
		(fields_autoplaced yes)
		(uuid "58f03954-5a09-4a36-97c8-68071de3aeab")
		(property "Reference" "J2"
			(at 182.88 100.3299 0)
			(effects
				(font
					(size 1.27 1.27)
				)
				(justify left)
			)
		)
		(property "Value" "DE9_Żeński"
			(at 182.88 102.8699 0)
			(effects
				(font
					(size 1.27 1.27)
				)
				(justify left)
			)
		)
		(property "Footprint" "Connector_Dsub:DSUB-9_Female_Horizontal_P2.77x2.54mm_EdgePinOffset9.40mm"
			(at 177.8 101.6 0)
			(effects
				(font
					(size 1.27 1.27)
				)
				(hide yes)
			)
		)
		(property "Datasheet" " ~"
			(at 177.8 101.6 0)
			(effects
				(font
					(size 1.27 1.27)
				)
				(hide yes)
			)
		)
		(property "Description" "9-pin female receptacle socket D-SUB connector"
			(at 177.8 101.6 0)
			(effects
				(font
					(size 1.27 1.27)
				)
				(hide yes)
			)
		)
		(pin "8"
			(uuid "fee5b381-8905-4f24-b84c-83e8285599d7")
		)
		(pin "4"
			(uuid "10490e98-87a1-471b-b6bc-267c17ad5501")
		)
		(pin "3"
			(uuid "cb0df22a-0a1c-46a2-b3dc-6e38362111ae")
		)
		(pin "5"
			(uuid "6e76813c-7aca-4948-b9eb-d56f117faea1")
		)
		(pin "9"
			(uuid "741c9883-13ab-4f0a-aea3-f6c9be9545b4")
		)
		(pin "7"
			(uuid "2751dd6d-51cb-4bf8-82cd-239f0b0f8a50")
		)
		(pin "6"
			(uuid "96eda127-5b69-48f7-a18d-bf634231e82c")
		)
		(pin "2"
			(uuid "0fb2c590-debe-4578-a7da-1bbc8171a65c")
		)
		(pin "1"
			(uuid "2470e536-8251-42cc-b52f-556944d3120f")
		)
		(instances
			(project "tht_de9_to_tht_de9"
				(path "/e3e5797e-752b-4633-8c10-5bf78b070097"
					(reference "J2")
					(unit 1)
				)
			)
		)
	)
	(symbol
		(lib_id "Connector:DE9_Receptacle")
		(at 127 101.6 180)
		(unit 1)
		(exclude_from_sim no)
		(in_bom yes)
		(on_board yes)
		(dnp no)
		(fields_autoplaced yes)
		(uuid "8013bc03-7ea4-4584-996e-6232d4bc171c")
		(property "Reference" "J1"
			(at 127 83.82 0)
			(effects
				(font
					(size 1.27 1.27)
				)
			)
		)
		(property "Value" "DE9_Żeński"
			(at 127 86.36 0)
			(effects
				(font
					(size 1.27 1.27)
				)
			)
		)
		(property "Footprint" "Connector_Dsub:DSUB-9_Female_Horizontal_P2.77x2.54mm_EdgePinOffset9.40mm"
			(at 127 101.6 0)
			(effects
				(font
					(size 1.27 1.27)
				)
				(hide yes)
			)
		)
		(property "Datasheet" " ~"
			(at 127 101.6 0)
			(effects
				(font
					(size 1.27 1.27)
				)
				(hide yes)
			)
		)
		(property "Description" "9-pin female receptacle socket D-SUB connector"
			(at 127 101.6 0)
			(effects
				(font
					(size 1.27 1.27)
				)
				(hide yes)
			)
		)
		(pin "8"
			(uuid "8f0db3e7-ba6a-48be-bc4b-48594f878928")
		)
		(pin "4"
			(uuid "73c75c2b-4933-4dcd-a21f-ffb8c5b63cd5")
		)
		(pin "3"
			(uuid "0084bf4a-dec0-4c50-91e2-a2559e51a309")
		)
		(pin "5"
			(uuid "884da5a2-7185-43e1-a8d5-272beca9fe1f")
		)
		(pin "9"
			(uuid "a3b955d0-a701-4215-91c3-0877373c155b")
		)
		(pin "7"
			(uuid "00087623-0741-4206-ba78-96f6f5f40ec3")
		)
		(pin "6"
			(uuid "bab31fec-408b-4181-aeca-fdb42f3d31d9")
		)
		(pin "2"
			(uuid "f2c610b3-3c3a-4c5e-b46b-f65efab85e2a")
		)
		(pin "1"
			(uuid "9680cc24-7906-4fa2-b70d-e653122e4f83")
		)
		(instances
			(project "tht_de9_to_tht_de9"
				(path "/e3e5797e-752b-4633-8c10-5bf78b070097"
					(reference "J1")
					(unit 1)
				)
			)
		)
	)
	(sheet_instances
		(path "/"
			(page "1")
		)
	)
)
